solid OpenSCAD_Model
  facet normal -0.0314099 -0.999507 0
    outer loop
      vertex 14.9954 7.03157 0
      vertex 16 7 20
      vertex 14.9954 7.03157 20
    endloop
  endfacet
  facet normal -0.0314099 -0.999507 -0
    outer loop
      vertex 16 7 20
      vertex 14.9954 7.03157 0
      vertex 16 7 0
    endloop
  endfacet
  facet normal -0.999506 -0.0314132 0
    outer loop
      vertex 0.0315733 21.9954 0
      vertex 0 23 20
      vertex 0 23 0
    endloop
  endfacet
  facet normal -0.999506 -0.0314132 0
    outer loop
      vertex 0 23 20
      vertex 0.0315733 21.9954 0
      vertex 0.0315733 21.9954 20
    endloop
  endfacet
  facet normal -0.707082 -0.707132 0
    outer loop
      vertex 5.04725 11.3365 0
      vertex 4.3365 12.0472 20
      vertex 4.3365 12.0472 0
    endloop
  endfacet
  facet normal -0.707082 -0.707132 0
    outer loop
      vertex 4.3365 12.0472 20
      vertex 5.04725 11.3365 0
      vertex 5.04725 11.3365 20
    endloop
  endfacet
  facet normal -0.397149 -0.917754 0
    outer loop
      vertex 9.18753 8.52277 0
      vertex 10.11 8.12358 20
      vertex 9.18753 8.52277 20
    endloop
  endfacet
  facet normal -0.397149 -0.917754 -0
    outer loop
      vertex 10.11 8.12358 20
      vertex 9.18753 8.52277 0
      vertex 10.11 8.12358 0
    endloop
  endfacet
  facet normal -0.917759 -0.397138 0
    outer loop
      vertex 1.52277 16.1875 0
      vertex 1.12358 17.11 20
      vertex 1.12358 17.11 0
    endloop
  endfacet
  facet normal -0.917759 -0.397138 0
    outer loop
      vertex 1.12358 17.11 20
      vertex 1.52277 16.1875 0
      vertex 1.52277 16.1875 20
    endloop
  endfacet
  facet normal -0.827099 -0.562057 0
    outer loop
      vertex 3.05573 13.5954 0
      vertex 2.49075 14.4268 20
      vertex 2.49075 14.4268 0
    endloop
  endfacet
  facet normal -0.827099 -0.562057 0
    outer loop
      vertex 2.49075 14.4268 20
      vertex 3.05573 13.5954 0
      vertex 3.05573 13.5954 20
    endloop
  endfacet
  facet normal -0.218155 -0.975914 0
    outer loop
      vertex 12.021 7.50267 0
      vertex 13.0019 7.2834 20
      vertex 12.021 7.50267 20
    endloop
  endfacet
  facet normal -0.218155 -0.975914 -0
    outer loop
      vertex 13.0019 7.2834 20
      vertex 12.021 7.50267 0
      vertex 13.0019 7.2834 0
    endloop
  endfacet
  facet normal -0.278977 -0.960298 0
    outer loop
      vertex 11.0557 7.7831 0
      vertex 12.021 7.50267 20
      vertex 11.0557 7.7831 20
    endloop
  endfacet
  facet normal -0.278977 -0.960298 -0
    outer loop
      vertex 12.021 7.50267 20
      vertex 11.0557 7.7831 0
      vertex 12.021 7.50267 0
    endloop
  endfacet
  facet normal -0.562069 -0.82709 0
    outer loop
      vertex 6.59544 10.0557 0
      vertex 7.42677 9.49075 20
      vertex 6.59544 10.0557 20
    endloop
  endfacet
  facet normal -0.562069 -0.82709 -0
    outer loop
      vertex 7.42677 9.49075 20
      vertex 6.59544 10.0557 0
      vertex 7.42677 9.49075 0
    endloop
  endfacet
  facet normal -0.453986 -0.891009 0
    outer loop
      vertex 8.29194 8.97909 0
      vertex 9.18753 8.52277 20
      vertex 8.29194 8.97909 20
    endloop
  endfacet
  facet normal -0.453986 -0.891009 -0
    outer loop
      vertex 9.18753 8.52277 20
      vertex 8.29194 8.97909 0
      vertex 9.18753 8.52277 0
    endloop
  endfacet
  facet normal -0.975915 -0.218152 0
    outer loop
      vertex 0.50267 19.021 0
      vertex 0.283404 20.0019 20
      vertex 0.283404 20.0019 0
    endloop
  endfacet
  facet normal -0.975915 -0.218152 0
    outer loop
      vertex 0.283404 20.0019 20
      vertex 0.50267 19.021 0
      vertex 0.50267 19.021 20
    endloop
  endfacet
  facet normal -0.940877 -0.338748 0
    outer loop
      vertex 1.12358 17.11 0
      vertex 0.783096 18.0557 20
      vertex 0.783096 18.0557 0
    endloop
  endfacet
  facet normal -0.940877 -0.338748 0
    outer loop
      vertex 0.783096 18.0557 20
      vertex 1.12358 17.11 0
      vertex 1.12358 17.11 20
    endloop
  endfacet
  facet normal -0.987689 -0.15643 0
    outer loop
      vertex 0.283404 20.0019 0
      vertex 0.126165 20.9947 20
      vertex 0.126165 20.9947 0
    endloop
  endfacet
  facet normal -0.987689 -0.15643 0
    outer loop
      vertex 0.126165 20.9947 20
      vertex 0.283404 20.0019 0
      vertex 0.283404 20.0019 20
    endloop
  endfacet
  facet normal -0.860724 -0.509072 0
    outer loop
      vertex 2.49075 14.4268 0
      vertex 1.97909 15.2919 20
      vertex 1.97909 15.2919 0
    endloop
  endfacet
  facet normal -0.860724 -0.509072 0
    outer loop
      vertex 1.97909 15.2919 20
      vertex 2.49075 14.4268 0
      vertex 2.49075 14.4268 20
    endloop
  endfacet
  facet normal -0.790148 -0.612917 0
    outer loop
      vertex 3.67179 12.8012 0
      vertex 3.05573 13.5954 20
      vertex 3.05573 13.5954 0
    endloop
  endfacet
  facet normal -0.790148 -0.612917 0
    outer loop
      vertex 3.05573 13.5954 20
      vertex 3.67179 12.8012 0
      vertex 3.67179 12.8012 20
    endloop
  endfacet
  facet normal 0 0 1
    outer loop
      vertex 6 34.5821 20
      vertex 8 34.5821 20
      vertex 8 36.9761 20
    endloop
  endfacet
  facet normal 0 0 1
    outer loop
      vertex 8 34.5821 20
      vertex 6 34.5821 20
      vertex 6.49354 33.8766 20
    endloop
  endfacet
  facet normal 0 0 1
    outer loop
      vertex 8 36.9761 20
      vertex 2 34.5821 20
      vertex 6 34.5821 20
    endloop
  endfacet
  facet normal 0 0 1
    outer loop
      vertex 0 23 20
      vertex 2 23 20
      vertex 2 34.5821 20
    endloop
  endfacet
  facet normal 0 -0 1
    outer loop
      vertex 0.0315733 21.9954 20
      vertex 2 23 20
      vertex 0 23 20
    endloop
  endfacet
  facet normal 0 0 1
    outer loop
      vertex 2 23 20
      vertex 1.52277 16.1875 20
      vertex 1.97909 15.2919 20
    endloop
  endfacet
  facet normal 0 0 1
    outer loop
      vertex 2 23 20
      vertex 1.12358 17.11 20
      vertex 1.52277 16.1875 20
    endloop
  endfacet
  facet normal 0 0 1
    outer loop
      vertex 2 23 20
      vertex 0.783096 18.0557 20
      vertex 1.12358 17.11 20
    endloop
  endfacet
  facet normal 0 0 1
    outer loop
      vertex 2 23 20
      vertex 0.50267 19.021 20
      vertex 0.783096 18.0557 20
    endloop
  endfacet
  facet normal 0 0 1
    outer loop
      vertex 2 23 20
      vertex 0.283404 20.0019 20
      vertex 0.50267 19.021 20
    endloop
  endfacet
  facet normal 0 0 1
    outer loop
      vertex 2 23 20
      vertex 0.126165 20.9947 20
      vertex 0.283404 20.0019 20
    endloop
  endfacet
  facet normal -0 0 1
    outer loop
      vertex 0 36.9761 20
      vertex 2 34.5821 20
      vertex 8 36.9761 20
    endloop
  endfacet
  facet normal 0 0 1
    outer loop
      vertex 0 23 20
      vertex 2 34.5821 20
      vertex 0 36.9761 20
    endloop
  endfacet
  facet normal 0 0 1
    outer loop
      vertex 2 23 20
      vertex 0.0315733 21.9954 20
      vertex 0.126165 20.9947 20
    endloop
  endfacet
  facet normal 0 0 1
    outer loop
      vertex 6.49354 33.8766 20
      vertex 6 34.5821 20
      vertex 6 33.6454 20
    endloop
  endfacet
  facet normal 0 0 1
    outer loop
      vertex 15.1209 9.02763 20
      vertex 16 7 20
      vertex 16 9 20
    endloop
  endfacet
  facet normal 0 0 1
    outer loop
      vertex 15.1209 9.02763 20
      vertex 14.9954 7.03157 20
      vertex 16 7 20
    endloop
  endfacet
  facet normal 0 0 1
    outer loop
      vertex 14.2453 9.11039 20
      vertex 14.9954 7.03157 20
      vertex 15.1209 9.02763 20
    endloop
  endfacet
  facet normal 0 0 1
    outer loop
      vertex 14.2453 9.11039 20
      vertex 13.9947 7.12617 20
      vertex 14.9954 7.03157 20
    endloop
  endfacet
  facet normal 0 0 1
    outer loop
      vertex 13.3767 9.24798 20
      vertex 13.9947 7.12617 20
      vertex 14.2453 9.11039 20
    endloop
  endfacet
  facet normal 0 0 1
    outer loop
      vertex 13.3767 9.24798 20
      vertex 13.0019 7.2834 20
      vertex 13.9947 7.12617 20
    endloop
  endfacet
  facet normal 0 0 1
    outer loop
      vertex 12.5183 9.43984 20
      vertex 13.0019 7.2834 20
      vertex 13.3767 9.24798 20
    endloop
  endfacet
  facet normal 0 0 1
    outer loop
      vertex 12.5183 9.43984 20
      vertex 12.021 7.50267 20
      vertex 13.0019 7.2834 20
    endloop
  endfacet
  facet normal 0 0 1
    outer loop
      vertex 11.6738 9.68521 20
      vertex 12.021 7.50267 20
      vertex 12.5183 9.43984 20
    endloop
  endfacet
  facet normal 0 0 1
    outer loop
      vertex 11.6738 9.68521 20
      vertex 11.0557 7.7831 20
      vertex 12.021 7.50267 20
    endloop
  endfacet
  facet normal 0 0 1
    outer loop
      vertex 10.8463 9.98313 20
      vertex 11.0557 7.7831 20
      vertex 11.6738 9.68521 20
    endloop
  endfacet
  facet normal 0 0 1
    outer loop
      vertex 10.8463 9.98313 20
      vertex 10.11 8.12358 20
      vertex 11.0557 7.7831 20
    endloop
  endfacet
  facet normal 0 0 1
    outer loop
      vertex 10.0391 10.3324 20
      vertex 10.11 8.12358 20
      vertex 10.8463 9.98313 20
    endloop
  endfacet
  facet normal 0 0 1
    outer loop
      vertex 9.18753 8.52277 20
      vertex 10.0391 10.3324 20
      vertex 9.25545 10.7317 20
    endloop
  endfacet
  facet normal 0 0 1
    outer loop
      vertex 10.0391 10.3324 20
      vertex 9.18753 8.52277 20
      vertex 10.11 8.12358 20
    endloop
  endfacet
  facet normal 0 0 1
    outer loop
      vertex 8.29194 8.97909 20
      vertex 9.25545 10.7317 20
      vertex 8.49843 11.1794 20
    endloop
  endfacet
  facet normal 0 0 1
    outer loop
      vertex 9.25545 10.7317 20
      vertex 8.29194 8.97909 20
      vertex 9.18753 8.52277 20
    endloop
  endfacet
  facet normal 0 0 1
    outer loop
      vertex 7.42677 9.49075 20
      vertex 8.49843 11.1794 20
      vertex 7.77101 11.6738 20
    endloop
  endfacet
  facet normal 0 0 1
    outer loop
      vertex 8.49843 11.1794 20
      vertex 7.42677 9.49075 20
      vertex 8.29194 8.97909 20
    endloop
  endfacet
  facet normal 0 0 1
    outer loop
      vertex 6.59544 10.0557 20
      vertex 7.77101 11.6738 20
      vertex 7.07607 12.2128 20
    endloop
  endfacet
  facet normal 0 0 1
    outer loop
      vertex 7.77101 11.6738 20
      vertex 6.59544 10.0557 20
      vertex 7.42677 9.49075 20
    endloop
  endfacet
  facet normal 0 0 1
    outer loop
      vertex 5.80122 10.6718 20
      vertex 7.07607 12.2128 20
      vertex 6.41634 12.7944 20
    endloop
  endfacet
  facet normal 0 0 1
    outer loop
      vertex 7.07607 12.2128 20
      vertex 5.80122 10.6718 20
      vertex 6.59544 10.0557 20
    endloop
  endfacet
  facet normal 0 0 1
    outer loop
      vertex 5.04725 11.3365 20
      vertex 6.41634 12.7944 20
      vertex 5.79444 13.4163 20
    endloop
  endfacet
  facet normal 0 0 1
    outer loop
      vertex 4.3365 12.0472 20
      vertex 5.79444 13.4163 20
      vertex 5.21282 14.0761 20
    endloop
  endfacet
  facet normal 0 0 1
    outer loop
      vertex 6.41634 12.7944 20
      vertex 5.04725 11.3365 20
      vertex 5.80122 10.6718 20
    endloop
  endfacet
  facet normal 0 0 1
    outer loop
      vertex 3.67179 12.8012 20
      vertex 5.21282 14.0761 20
      vertex 4.67376 14.771 20
    endloop
  endfacet
  facet normal 0 0 1
    outer loop
      vertex 5.79444 13.4163 20
      vertex 4.3365 12.0472 20
      vertex 5.04725 11.3365 20
    endloop
  endfacet
  facet normal 0 0 1
    outer loop
      vertex 3.05573 13.5954 20
      vertex 4.67376 14.771 20
      vertex 4.17941 15.4984 20
    endloop
  endfacet
  facet normal 0 0 1
    outer loop
      vertex 2.49075 14.4268 20
      vertex 4.17941 15.4984 20
      vertex 3.73171 16.2554 20
    endloop
  endfacet
  facet normal 0 0 1
    outer loop
      vertex 5.21282 14.0761 20
      vertex 3.67179 12.8012 20
      vertex 4.3365 12.0472 20
    endloop
  endfacet
  facet normal 0 0 1
    outer loop
      vertex 1.97909 15.2919 20
      vertex 3.73171 16.2554 20
      vertex 3.33242 17.0391 20
    endloop
  endfacet
  facet normal 0 0 1
    outer loop
      vertex 4.67376 14.771 20
      vertex 3.05573 13.5954 20
      vertex 3.67179 12.8012 20
    endloop
  endfacet
  facet normal 0 0 1
    outer loop
      vertex 1.97909 15.2919 20
      vertex 3.33242 17.0391 20
      vertex 2.98313 17.8463 20
    endloop
  endfacet
  facet normal 0 0 1
    outer loop
      vertex 1.97909 15.2919 20
      vertex 2.98313 17.8463 20
      vertex 2.68521 18.6738 20
    endloop
  endfacet
  facet normal 0 0 1
    outer loop
      vertex 4.17941 15.4984 20
      vertex 2.49075 14.4268 20
      vertex 3.05573 13.5954 20
    endloop
  endfacet
  facet normal 0 0 1
    outer loop
      vertex 1.97909 15.2919 20
      vertex 2.68521 18.6738 20
      vertex 2.43984 19.5183 20
    endloop
  endfacet
  facet normal 0 0 1
    outer loop
      vertex 1.97909 15.2919 20
      vertex 2.43984 19.5183 20
      vertex 2.24798 20.3767 20
    endloop
  endfacet
  facet normal 0 0 1
    outer loop
      vertex 1.97909 15.2919 20
      vertex 2.24798 20.3767 20
      vertex 2.11039 21.2453 20
    endloop
  endfacet
  facet normal 0 0 1
    outer loop
      vertex 1.97909 15.2919 20
      vertex 2.11039 21.2453 20
      vertex 2.02763 22.1209 20
    endloop
  endfacet
  facet normal 0 0 1
    outer loop
      vertex 3.73171 16.2554 20
      vertex 1.97909 15.2919 20
      vertex 2.49075 14.4268 20
    endloop
  endfacet
  facet normal 0 0 1
    outer loop
      vertex 1.97909 15.2919 20
      vertex 2.02763 22.1209 20
      vertex 2 23 20
    endloop
  endfacet
  facet normal 0 0 1
    outer loop
      vertex 16 7 20
      vertex 24 9 20
      vertex 16 9 20
    endloop
  endfacet
  facet normal 0 0 1
    outer loop
      vertex 24 9 20
      vertex 16 7 20
      vertex 24 0 20
    endloop
  endfacet
  facet normal 0 0 1
    outer loop
      vertex 24 0 20
      vertex 16 7 20
      vertex 16 0 20
    endloop
  endfacet
  facet normal -0.156421 -0.987691 0
    outer loop
      vertex 13.0019 7.2834 0
      vertex 13.9947 7.12617 20
      vertex 13.0019 7.2834 20
    endloop
  endfacet
  facet normal -0.156421 -0.987691 -0
    outer loop
      vertex 13.9947 7.12617 20
      vertex 13.0019 7.2834 0
      vertex 13.9947 7.12617 0
    endloop
  endfacet
  facet normal -0.0941142 -0.995561 0
    outer loop
      vertex 13.9947 7.12617 0
      vertex 14.9954 7.03157 20
      vertex 13.9947 7.12617 20
    endloop
  endfacet
  facet normal -0.0941142 -0.995561 -0
    outer loop
      vertex 14.9954 7.03157 20
      vertex 13.9947 7.12617 0
      vertex 14.9954 7.03157 0
    endloop
  endfacet
  facet normal -0.338744 -0.940879 0
    outer loop
      vertex 10.11 8.12358 0
      vertex 11.0557 7.7831 20
      vertex 10.11 8.12358 20
    endloop
  endfacet
  facet normal -0.338744 -0.940879 -0
    outer loop
      vertex 11.0557 7.7831 20
      vertex 10.11 8.12358 0
      vertex 11.0557 7.7831 0
    endloop
  endfacet
  facet normal -0.661304 -0.750118 0
    outer loop
      vertex 5.04725 11.3365 0
      vertex 5.80122 10.6718 20
      vertex 5.04725 11.3365 20
    endloop
  endfacet
  facet normal -0.661304 -0.750118 -0
    outer loop
      vertex 5.80122 10.6718 20
      vertex 5.04725 11.3365 0
      vertex 5.80122 10.6718 0
    endloop
  endfacet
  facet normal -0.960299 -0.278973 0
    outer loop
      vertex 0.783096 18.0557 0
      vertex 0.50267 19.021 20
      vertex 0.50267 19.021 0
    endloop
  endfacet
  facet normal -0.960299 -0.278973 0
    outer loop
      vertex 0.50267 19.021 20
      vertex 0.783096 18.0557 0
      vertex 0.783096 18.0557 20
    endloop
  endfacet
  facet normal -0.995562 -0.094106 0
    outer loop
      vertex 0.126165 20.9947 0
      vertex 0.0315733 21.9954 20
      vertex 0.0315733 21.9954 0
    endloop
  endfacet
  facet normal -0.995562 -0.094106 0
    outer loop
      vertex 0.0315733 21.9954 20
      vertex 0.126165 20.9947 0
      vertex 0.126165 20.9947 20
    endloop
  endfacet
  facet normal -0.891011 -0.453982 0
    outer loop
      vertex 1.97909 15.2919 0
      vertex 1.52277 16.1875 20
      vertex 1.52277 16.1875 0
    endloop
  endfacet
  facet normal -0.891011 -0.453982 0
    outer loop
      vertex 1.52277 16.1875 20
      vertex 1.97909 15.2919 0
      vertex 1.97909 15.2919 20
    endloop
  endfacet
  facet normal -0.750126 -0.661295 0
    outer loop
      vertex 4.3365 12.0472 0
      vertex 3.67179 12.8012 20
      vertex 3.67179 12.8012 0
    endloop
  endfacet
  facet normal -0.750126 -0.661295 0
    outer loop
      vertex 3.67179 12.8012 20
      vertex 4.3365 12.0472 0
      vertex 4.3365 12.0472 20
    endloop
  endfacet
  facet normal 0 0 -1
    outer loop
      vertex 16 7 0
      vertex 24 0 0
      vertex 16 0 0
    endloop
  endfacet
  facet normal 0 0 -1
    outer loop
      vertex 24 0 0
      vertex 16 7 0
      vertex 24 9 0
    endloop
  endfacet
  facet normal 0 0 -1
    outer loop
      vertex 16 7 0
      vertex 16 9 0
      vertex 24 9 0
    endloop
  endfacet
  facet normal 0 0 -1
    outer loop
      vertex 16 7 0
      vertex 15.1209 9.02763 0
      vertex 16 9 0
    endloop
  endfacet
  facet normal 0 0 -1
    outer loop
      vertex 14.9954 7.03157 0
      vertex 15.1209 9.02763 0
      vertex 16 7 0
    endloop
  endfacet
  facet normal 0 0 -1
    outer loop
      vertex 14.9954 7.03157 0
      vertex 14.2453 9.11039 0
      vertex 15.1209 9.02763 0
    endloop
  endfacet
  facet normal 0 0 -1
    outer loop
      vertex 13.9947 7.12617 0
      vertex 14.2453 9.11039 0
      vertex 14.9954 7.03157 0
    endloop
  endfacet
  facet normal 0 0 -1
    outer loop
      vertex 13.9947 7.12617 0
      vertex 13.3767 9.24798 0
      vertex 14.2453 9.11039 0
    endloop
  endfacet
  facet normal 0 0 -1
    outer loop
      vertex 13.0019 7.2834 0
      vertex 13.3767 9.24798 0
      vertex 13.9947 7.12617 0
    endloop
  endfacet
  facet normal 0 0 -1
    outer loop
      vertex 13.0019 7.2834 0
      vertex 12.5183 9.43984 0
      vertex 13.3767 9.24798 0
    endloop
  endfacet
  facet normal 0 0 -1
    outer loop
      vertex 12.021 7.50267 0
      vertex 12.5183 9.43984 0
      vertex 13.0019 7.2834 0
    endloop
  endfacet
  facet normal 0 0 -1
    outer loop
      vertex 12.021 7.50267 0
      vertex 11.6738 9.68521 0
      vertex 12.5183 9.43984 0
    endloop
  endfacet
  facet normal 0 0 -1
    outer loop
      vertex 11.0557 7.7831 0
      vertex 11.6738 9.68521 0
      vertex 12.021 7.50267 0
    endloop
  endfacet
  facet normal 0 0 -1
    outer loop
      vertex 11.0557 7.7831 0
      vertex 10.8463 9.98313 0
      vertex 11.6738 9.68521 0
    endloop
  endfacet
  facet normal 0 0 -1
    outer loop
      vertex 10.11 8.12358 0
      vertex 10.8463 9.98313 0
      vertex 11.0557 7.7831 0
    endloop
  endfacet
  facet normal 0 0 -1
    outer loop
      vertex 10.11 8.12358 0
      vertex 10.0391 10.3324 0
      vertex 10.8463 9.98313 0
    endloop
  endfacet
  facet normal 0 0 -1
    outer loop
      vertex 9.18753 8.52277 0
      vertex 10.0391 10.3324 0
      vertex 10.11 8.12358 0
    endloop
  endfacet
  facet normal -0 0 -1
    outer loop
      vertex 10.0391 10.3324 0
      vertex 9.18753 8.52277 0
      vertex 9.25545 10.7317 0
    endloop
  endfacet
  facet normal 0 0 -1
    outer loop
      vertex 8.29194 8.97909 0
      vertex 9.25545 10.7317 0
      vertex 9.18753 8.52277 0
    endloop
  endfacet
  facet normal -0 0 -1
    outer loop
      vertex 9.25545 10.7317 0
      vertex 8.29194 8.97909 0
      vertex 8.49843 11.1794 0
    endloop
  endfacet
  facet normal 0 0 -1
    outer loop
      vertex 7.42677 9.49075 0
      vertex 8.49843 11.1794 0
      vertex 8.29194 8.97909 0
    endloop
  endfacet
  facet normal -0 0 -1
    outer loop
      vertex 8.49843 11.1794 0
      vertex 7.42677 9.49075 0
      vertex 7.77101 11.6738 0
    endloop
  endfacet
  facet normal 0 0 -1
    outer loop
      vertex 6.59544 10.0557 0
      vertex 7.77101 11.6738 0
      vertex 7.42677 9.49075 0
    endloop
  endfacet
  facet normal -0 0 -1
    outer loop
      vertex 7.77101 11.6738 0
      vertex 6.59544 10.0557 0
      vertex 7.07607 12.2128 0
    endloop
  endfacet
  facet normal 0 0 -1
    outer loop
      vertex 5.80122 10.6718 0
      vertex 7.07607 12.2128 0
      vertex 6.59544 10.0557 0
    endloop
  endfacet
  facet normal -0 0 -1
    outer loop
      vertex 7.07607 12.2128 0
      vertex 5.80122 10.6718 0
      vertex 6.41634 12.7944 0
    endloop
  endfacet
  facet normal 0 0 -1
    outer loop
      vertex 5.04725 11.3365 0
      vertex 6.41634 12.7944 0
      vertex 5.80122 10.6718 0
    endloop
  endfacet
  facet normal -0 0 -1
    outer loop
      vertex 6.41634 12.7944 0
      vertex 5.04725 11.3365 0
      vertex 5.79444 13.4163 0
    endloop
  endfacet
  facet normal 0 0 -1
    outer loop
      vertex 4.3365 12.0472 0
      vertex 5.79444 13.4163 0
      vertex 5.04725 11.3365 0
    endloop
  endfacet
  facet normal -0 0 -1
    outer loop
      vertex 5.79444 13.4163 0
      vertex 4.3365 12.0472 0
      vertex 5.21282 14.0761 0
    endloop
  endfacet
  facet normal 0 0 -1
    outer loop
      vertex 3.67179 12.8012 0
      vertex 5.21282 14.0761 0
      vertex 4.3365 12.0472 0
    endloop
  endfacet
  facet normal -0 0 -1
    outer loop
      vertex 5.21282 14.0761 0
      vertex 3.67179 12.8012 0
      vertex 4.67376 14.771 0
    endloop
  endfacet
  facet normal 0 0 -1
    outer loop
      vertex 3.05573 13.5954 0
      vertex 4.67376 14.771 0
      vertex 3.67179 12.8012 0
    endloop
  endfacet
  facet normal -0 0 -1
    outer loop
      vertex 4.67376 14.771 0
      vertex 3.05573 13.5954 0
      vertex 4.17941 15.4984 0
    endloop
  endfacet
  facet normal 0 0 -1
    outer loop
      vertex 2.49075 14.4268 0
      vertex 4.17941 15.4984 0
      vertex 3.05573 13.5954 0
    endloop
  endfacet
  facet normal -0 0 -1
    outer loop
      vertex 4.17941 15.4984 0
      vertex 2.49075 14.4268 0
      vertex 3.73171 16.2554 0
    endloop
  endfacet
  facet normal 0 0 -1
    outer loop
      vertex 1.97909 15.2919 0
      vertex 3.73171 16.2554 0
      vertex 2.49075 14.4268 0
    endloop
  endfacet
  facet normal -0 0 -1
    outer loop
      vertex 3.73171 16.2554 0
      vertex 1.97909 15.2919 0
      vertex 3.33242 17.0391 0
    endloop
  endfacet
  facet normal 0 0 -1
    outer loop
      vertex 1.52277 16.1875 0
      vertex 3.33242 17.0391 0
      vertex 1.97909 15.2919 0
    endloop
  endfacet
  facet normal -0 0 -1
    outer loop
      vertex 3.33242 17.0391 0
      vertex 1.52277 16.1875 0
      vertex 2.98313 17.8463 0
    endloop
  endfacet
  facet normal 0 0 -1
    outer loop
      vertex 1.12358 17.11 0
      vertex 2.98313 17.8463 0
      vertex 1.52277 16.1875 0
    endloop
  endfacet
  facet normal -0 0 -1
    outer loop
      vertex 2.98313 17.8463 0
      vertex 1.12358 17.11 0
      vertex 2.68521 18.6738 0
    endloop
  endfacet
  facet normal 0 0 -1
    outer loop
      vertex 0.783096 18.0557 0
      vertex 2.68521 18.6738 0
      vertex 1.12358 17.11 0
    endloop
  endfacet
  facet normal -0 0 -1
    outer loop
      vertex 2.43984 19.5183 0
      vertex 0.50267 19.021 0
      vertex 2.24798 20.3767 0
    endloop
  endfacet
  facet normal 0 0 -1
    outer loop
      vertex 0.50267 19.021 0
      vertex 2.43984 19.5183 0
      vertex 0.783096 18.0557 0
    endloop
  endfacet
  facet normal -0 0 -1
    outer loop
      vertex 2.68521 18.6738 0
      vertex 0.783096 18.0557 0
      vertex 2.43984 19.5183 0
    endloop
  endfacet
  facet normal 0 0 -1
    outer loop
      vertex 7.42739 34.314 0
      vertex 8 36.9761 0
      vertex 8 34.5821 0
    endloop
  endfacet
  facet normal 0 0 -1
    outer loop
      vertex 6 34.5821 0
      vertex 7.42739 34.314 0
      vertex 6 33.6454 0
    endloop
  endfacet
  facet normal 0 0 -1
    outer loop
      vertex 7.42739 34.314 0
      vertex 6 34.5821 0
      vertex 8 36.9761 0
    endloop
  endfacet
  facet normal 0 0 -1
    outer loop
      vertex 2 34.5821 0
      vertex 8 36.9761 0
      vertex 6 34.5821 0
    endloop
  endfacet
  facet normal 0 0 -1
    outer loop
      vertex 0.283404 20.0019 0
      vertex 2.24798 20.3767 0
      vertex 0.50267 19.021 0
    endloop
  endfacet
  facet normal -0 0 -1
    outer loop
      vertex 2.24798 20.3767 0
      vertex 0.283404 20.0019 0
      vertex 2.11039 21.2453 0
    endloop
  endfacet
  facet normal 0 0 -1
    outer loop
      vertex 0.126165 20.9947 0
      vertex 2.11039 21.2453 0
      vertex 0.283404 20.0019 0
    endloop
  endfacet
  facet normal -0 0 -1
    outer loop
      vertex 2.11039 21.2453 0
      vertex 0.126165 20.9947 0
      vertex 2.02763 22.1209 0
    endloop
  endfacet
  facet normal 0 0 -1
    outer loop
      vertex 0.0315733 21.9954 0
      vertex 2.02763 22.1209 0
      vertex 0.126165 20.9947 0
    endloop
  endfacet
  facet normal -0 0 -1
    outer loop
      vertex 2.02763 22.1209 0
      vertex 0.0315733 21.9954 0
      vertex 2 23 0
    endloop
  endfacet
  facet normal -0 0 -1
    outer loop
      vertex 2 23 0
      vertex 0.0315733 21.9954 0
      vertex 0 23 0
    endloop
  endfacet
  facet normal 0 0 -1
    outer loop
      vertex 2 23 0
      vertex 0 23 0
      vertex 2 34.5821 0
    endloop
  endfacet
  facet normal 0 0 -1
    outer loop
      vertex 2 34.5821 0
      vertex 0 36.9761 0
      vertex 8 36.9761 0
    endloop
  endfacet
  facet normal 0 0 -1
    outer loop
      vertex 0 36.9761 0
      vertex 2 34.5821 0
      vertex 0 23 0
    endloop
  endfacet
  facet normal -0.612932 -0.790136 0
    outer loop
      vertex 5.80122 10.6718 0
      vertex 6.59544 10.0557 20
      vertex 5.80122 10.6718 20
    endloop
  endfacet
  facet normal -0.612932 -0.790136 -0
    outer loop
      vertex 6.59544 10.0557 20
      vertex 5.80122 10.6718 0
      vertex 6.59544 10.0557 0
    endloop
  endfacet
  facet normal -0.509041 -0.860742 0
    outer loop
      vertex 7.42677 9.49075 0
      vertex 8.29194 8.97909 20
      vertex 7.42677 9.49075 20
    endloop
  endfacet
  facet normal -0.509041 -0.860742 -0
    outer loop
      vertex 8.29194 8.97909 20
      vertex 7.42677 9.49075 0
      vertex 8.29194 8.97909 0
    endloop
  endfacet
  facet normal 0.0314144 0.999506 -0
    outer loop
      vertex 16 9 0
      vertex 15.1209 9.02763 20
      vertex 16 9 20
    endloop
  endfacet
  facet normal 0.0314144 0.999506 0
    outer loop
      vertex 15.1209 9.02763 20
      vertex 16 9 0
      vertex 15.1209 9.02763 0
    endloop
  endfacet
  facet normal 0.999506 0.0314144 0
    outer loop
      vertex 2.02763 22.1209 20
      vertex 2 23 0
      vertex 2 23 20
    endloop
  endfacet
  facet normal 0.999506 0.0314144 0
    outer loop
      vertex 2 23 0
      vertex 2.02763 22.1209 20
      vertex 2.02763 22.1209 0
    endloop
  endfacet
  facet normal 0.707107 0.707107 0
    outer loop
      vertex 6.41634 12.7944 20
      vertex 5.79444 13.4163 0
      vertex 5.79444 13.4163 20
    endloop
  endfacet
  facet normal 0.707107 0.707107 0
    outer loop
      vertex 5.79444 13.4163 0
      vertex 6.41634 12.7944 20
      vertex 6.41634 12.7944 0
    endloop
  endfacet
  facet normal 0.397113 0.91777 -0
    outer loop
      vertex 10.8463 9.98313 0
      vertex 10.0391 10.3324 20
      vertex 10.8463 9.98313 20
    endloop
  endfacet
  facet normal 0.397113 0.91777 0
    outer loop
      vertex 10.0391 10.3324 20
      vertex 10.8463 9.98313 0
      vertex 10.0391 10.3324 0
    endloop
  endfacet
  facet normal 0.917762 0.397132 0
    outer loop
      vertex 3.33242 17.0391 20
      vertex 2.98313 17.8463 0
      vertex 2.98313 17.8463 20
    endloop
  endfacet
  facet normal 0.917762 0.397132 0
    outer loop
      vertex 2.98313 17.8463 0
      vertex 3.33242 17.0391 20
      vertex 3.33242 17.0391 0
    endloop
  endfacet
  facet normal 0.0940987 0.995563 -0
    outer loop
      vertex 15.1209 9.02763 0
      vertex 14.2453 9.11039 20
      vertex 15.1209 9.02763 20
    endloop
  endfacet
  facet normal 0.0940987 0.995563 0
    outer loop
      vertex 14.2453 9.11039 20
      vertex 15.1209 9.02763 0
      vertex 14.2453 9.11039 0
    endloop
  endfacet
  facet normal 0.279012 0.960288 -0
    outer loop
      vertex 12.5183 9.43984 0
      vertex 11.6738 9.68521 20
      vertex 12.5183 9.43984 20
    endloop
  endfacet
  facet normal 0.279012 0.960288 0
    outer loop
      vertex 11.6738 9.68521 20
      vertex 12.5183 9.43984 0
      vertex 11.6738 9.68521 0
    endloop
  endfacet
  facet normal 0.661293 0.750128 -0
    outer loop
      vertex 7.07607 12.2128 0
      vertex 6.41634 12.7944 20
      vertex 7.07607 12.2128 20
    endloop
  endfacet
  facet normal 0.661293 0.750128 0
    outer loop
      vertex 6.41634 12.7944 20
      vertex 7.07607 12.2128 0
      vertex 6.41634 12.7944 0
    endloop
  endfacet
  facet normal 0.454 0.891002 -0
    outer loop
      vertex 10.0391 10.3324 0
      vertex 9.25545 10.7317 20
      vertex 10.0391 10.3324 20
    endloop
  endfacet
  facet normal 0.454 0.891002 0
    outer loop
      vertex 9.25545 10.7317 20
      vertex 10.0391 10.3324 0
      vertex 9.25545 10.7317 0
    endloop
  endfacet
  facet normal 0.97592 0.218127 0
    outer loop
      vertex 2.43984 19.5183 20
      vertex 2.24798 20.3767 0
      vertex 2.24798 20.3767 20
    endloop
  endfacet
  facet normal 0.97592 0.218127 0
    outer loop
      vertex 2.24798 20.3767 0
      vertex 2.43984 19.5183 20
      vertex 2.43984 19.5183 0
    endloop
  endfacet
  facet normal 0.94088 0.33874 0
    outer loop
      vertex 2.98313 17.8463 20
      vertex 2.68521 18.6738 0
      vertex 2.68521 18.6738 20
    endloop
  endfacet
  facet normal 0.94088 0.33874 0
    outer loop
      vertex 2.68521 18.6738 0
      vertex 2.98313 17.8463 20
      vertex 2.98313 17.8463 0
    endloop
  endfacet
  facet normal 0.987685 0.156454 0
    outer loop
      vertex 2.24798 20.3767 20
      vertex 2.11039 21.2453 0
      vertex 2.11039 21.2453 20
    endloop
  endfacet
  facet normal 0.987685 0.156454 0
    outer loop
      vertex 2.11039 21.2453 0
      vertex 2.24798 20.3767 20
      vertex 2.24798 20.3767 0
    endloop
  endfacet
  facet normal 0.827076 0.562091 0
    outer loop
      vertex 4.67376 14.771 20
      vertex 4.17941 15.4984 0
      vertex 4.17941 15.4984 20
    endloop
  endfacet
  facet normal 0.827076 0.562091 0
    outer loop
      vertex 4.17941 15.4984 0
      vertex 4.67376 14.771 20
      vertex 4.67376 14.771 0
    endloop
  endfacet
  facet normal 0.891018 0.453968 0
    outer loop
      vertex 3.73171 16.2554 20
      vertex 3.33242 17.0391 0
      vertex 3.33242 17.0391 20
    endloop
  endfacet
  facet normal 0.891018 0.453968 0
    outer loop
      vertex 3.33242 17.0391 0
      vertex 3.73171 16.2554 20
      vertex 3.73171 16.2554 0
    endloop
  endfacet
  facet normal 0.218127 0.97592 -0
    outer loop
      vertex 13.3767 9.24798 0
      vertex 12.5183 9.43984 20
      vertex 13.3767 9.24798 20
    endloop
  endfacet
  facet normal 0.218127 0.97592 0
    outer loop
      vertex 12.5183 9.43984 20
      vertex 13.3767 9.24798 0
      vertex 12.5183 9.43984 0
    endloop
  endfacet
  facet normal 0.156454 0.987685 -0
    outer loop
      vertex 14.2453 9.11039 0
      vertex 13.3767 9.24798 20
      vertex 14.2453 9.11039 20
    endloop
  endfacet
  facet normal 0.156454 0.987685 0
    outer loop
      vertex 13.3767 9.24798 20
      vertex 14.2453 9.11039 0
      vertex 13.3767 9.24798 0
    endloop
  endfacet
  facet normal 0.33874 0.94088 -0
    outer loop
      vertex 11.6738 9.68521 0
      vertex 10.8463 9.98313 20
      vertex 11.6738 9.68521 20
    endloop
  endfacet
  facet normal 0.33874 0.94088 0
    outer loop
      vertex 10.8463 9.98313 20
      vertex 11.6738 9.68521 0
      vertex 10.8463 9.98313 0
    endloop
  endfacet
  facet normal 0.612871 0.790183 -0
    outer loop
      vertex 7.77101 11.6738 0
      vertex 7.07607 12.2128 20
      vertex 7.77101 11.6738 20
    endloop
  endfacet
  facet normal 0.612871 0.790183 0
    outer loop
      vertex 7.07607 12.2128 20
      vertex 7.77101 11.6738 0
      vertex 7.07607 12.2128 0
    endloop
  endfacet
  facet normal 0.562119 0.827056 -0
    outer loop
      vertex 8.49843 11.1794 0
      vertex 7.77101 11.6738 20
      vertex 8.49843 11.1794 20
    endloop
  endfacet
  facet normal 0.562119 0.827056 0
    outer loop
      vertex 7.77101 11.6738 20
      vertex 8.49843 11.1794 0
      vertex 7.77101 11.6738 0
    endloop
  endfacet
  facet normal 0.509041 0.860742 -0
    outer loop
      vertex 9.25545 10.7317 0
      vertex 8.49843 11.1794 20
      vertex 9.25545 10.7317 20
    endloop
  endfacet
  facet normal 0.509041 0.860742 0
    outer loop
      vertex 8.49843 11.1794 20
      vertex 9.25545 10.7317 0
      vertex 8.49843 11.1794 0
    endloop
  endfacet
  facet normal 0.960288 0.279012 0
    outer loop
      vertex 2.68521 18.6738 20
      vertex 2.43984 19.5183 0
      vertex 2.43984 19.5183 20
    endloop
  endfacet
  facet normal 0.960288 0.279012 0
    outer loop
      vertex 2.43984 19.5183 0
      vertex 2.68521 18.6738 20
      vertex 2.68521 18.6738 0
    endloop
  endfacet
  facet normal 0.995563 0.0940987 0
    outer loop
      vertex 2.11039 21.2453 20
      vertex 2.02763 22.1209 0
      vertex 2.02763 22.1209 20
    endloop
  endfacet
  facet normal 0.995563 0.0940987 0
    outer loop
      vertex 2.02763 22.1209 0
      vertex 2.11039 21.2453 20
      vertex 2.11039 21.2453 0
    endloop
  endfacet
  facet normal 0.860736 0.509051 0
    outer loop
      vertex 4.17941 15.4984 20
      vertex 3.73171 16.2554 0
      vertex 3.73171 16.2554 20
    endloop
  endfacet
  facet normal 0.860736 0.509051 0
    outer loop
      vertex 3.73171 16.2554 0
      vertex 4.17941 15.4984 20
      vertex 4.17941 15.4984 0
    endloop
  endfacet
  facet normal 0.790133 0.612936 0
    outer loop
      vertex 5.21282 14.0761 20
      vertex 4.67376 14.771 0
      vertex 4.67376 14.771 20
    endloop
  endfacet
  facet normal 0.790133 0.612936 0
    outer loop
      vertex 4.67376 14.771 0
      vertex 5.21282 14.0761 20
      vertex 5.21282 14.0761 0
    endloop
  endfacet
  facet normal 0.750152 0.661266 0
    outer loop
      vertex 5.79444 13.4163 20
      vertex 5.21282 14.0761 0
      vertex 5.21282 14.0761 20
    endloop
  endfacet
  facet normal 0.750152 0.661266 0
    outer loop
      vertex 5.21282 14.0761 0
      vertex 5.79444 13.4163 20
      vertex 5.79444 13.4163 0
    endloop
  endfacet
  facet normal -1 0 0
    outer loop
      vertex 16 0 0
      vertex 16 7 20
      vertex 16 7 0
    endloop
  endfacet
  facet normal -1 -0 0
    outer loop
      vertex 16 7 20
      vertex 16 0 0
      vertex 16 0 20
    endloop
  endfacet
  facet normal 0 -1 0
    outer loop
      vertex 16 0 0
      vertex 24 0 20
      vertex 16 0 20
    endloop
  endfacet
  facet normal 0 -1 -0
    outer loop
      vertex 24 0 20
      vertex 16 0 0
      vertex 24 0 0
    endloop
  endfacet
  facet normal 1 0 0
    outer loop
      vertex 24 9 20
      vertex 24 1 16.25
      vertex 24 9 16.25
    endloop
  endfacet
  facet normal 1 0 0
    outer loop
      vertex 24 1 16.25
      vertex 24 0 20
      vertex 24 1 3.75
    endloop
  endfacet
  facet normal 1 -0 0
    outer loop
      vertex 24 0 20
      vertex 24 1 16.25
      vertex 24 9 20
    endloop
  endfacet
  facet normal 1 -0 0
    outer loop
      vertex 24 1 3.75
      vertex 24 9 0
      vertex 24 9 3.75
    endloop
  endfacet
  facet normal 1 0 0
    outer loop
      vertex 24 1 3.75
      vertex 24 0 0
      vertex 24 9 0
    endloop
  endfacet
  facet normal 1 0 0
    outer loop
      vertex 24 0 0
      vertex 24 1 3.75
      vertex 24 0 20
    endloop
  endfacet
  facet normal 0 1 0
    outer loop
      vertex 24 9 3.75
      vertex 24 9 0
      vertex 18.5 9 2
    endloop
  endfacet
  facet normal 0 1 0
    outer loop
      vertex 24 9 20
      vertex 18.5 9 18
      vertex 16 9 20
    endloop
  endfacet
  facet normal -0 1 0
    outer loop
      vertex 18.5 9 18
      vertex 24 9 20
      vertex 24 9 16.25
    endloop
  endfacet
  facet normal 0 1 -0
    outer loop
      vertex 18.5 9 2
      vertex 16 9 20
      vertex 18.5 9 18
    endloop
  endfacet
  facet normal 0 1 0
    outer loop
      vertex 18.5 9 2
      vertex 16 9 0
      vertex 16 9 20
    endloop
  endfacet
  facet normal 0 1 0
    outer loop
      vertex 16 9 0
      vertex 18.5 9 2
      vertex 24 9 0
    endloop
  endfacet
  facet normal 0 1 -0
    outer loop
      vertex 24 1 3.75
      vertex 18.5 1 18
      vertex 24 1 16.25
    endloop
  endfacet
  facet normal 0 1 0
    outer loop
      vertex 18.5 1 18
      vertex 24 1 3.75
      vertex 18.5 1 2
    endloop
  endfacet
  facet normal -0.303204 0 0.952926
    outer loop
      vertex 18.5 9 2
      vertex 24 1 3.75
      vertex 24 9 3.75
    endloop
  endfacet
  facet normal -0.303204 0 0.952926
    outer loop
      vertex 24 1 3.75
      vertex 18.5 9 2
      vertex 18.5 1 2
    endloop
  endfacet
  facet normal 1 -0 0
    outer loop
      vertex 18.5 1 18
      vertex 18.5 9 2
      vertex 18.5 9 18
    endloop
  endfacet
  facet normal 1 0 0
    outer loop
      vertex 18.5 9 2
      vertex 18.5 1 18
      vertex 18.5 1 2
    endloop
  endfacet
  facet normal -0.303204 0 -0.952926
    outer loop
      vertex 18.5 1 18
      vertex 24 9 16.25
      vertex 24 1 16.25
    endloop
  endfacet
  facet normal -0.303204 0 -0.952926
    outer loop
      vertex 24 9 16.25
      vertex 18.5 1 18
      vertex 18.5 9 18
    endloop
  endfacet
  facet normal 0 -0.999507 -0.0314094
    outer loop
      vertex 2 33.2736 7.65791
      vertex 6 33.2 10
      vertex 2 33.2 10
    endloop
  endfacet
  facet normal -0 -0.999507 -0.0314094
    outer loop
      vertex 8 33.2736 7.65791
      vertex 6 33.2 10
      vertex 2 33.2736 7.65791
    endloop
  endfacet
  facet normal 0 -0.999507 -0.0314094
    outer loop
      vertex 6 33.2 10
      vertex 8 33.2736 7.65791
      vertex 8 33.2 10
    endloop
  endfacet
  facet normal 0 -0.975923 -0.218118
    outer loop
      vertex 2 34.3718 0.723867
      vertex 6 33.8607 3.01068
      vertex 2 33.8607 3.01068
    endloop
  endfacet
  facet normal 0 -0.975923 -0.218118
    outer loop
      vertex 6 33.8607 3.01068
      vertex 2 34.3718 0.723867
      vertex 6 34.3718 0.723867
    endloop
  endfacet
  facet normal 1 -0 0
    outer loop
      vertex 8 33.8607 3.01067
      vertex 8 34.3718 0.723867
      vertex 8 33.8607 3.01068
    endloop
  endfacet
  facet normal 0 -0.987693 0.156402
    outer loop
      vertex 2 33.8607 16.9893
      vertex 6 33.6909 15.917
      vertex 6 33.8607 16.9893
    endloop
  endfacet
  facet normal 1.28091e-05 -0.987686 0.156449
    outer loop
      vertex 2 33.4941 14.6749
      vertex 6 33.6909 15.917
      vertex 2 33.8607 16.9893
    endloop
  endfacet
  facet normal 0 -0.98768 0.156489
    outer loop
      vertex 8 33.4941 14.6749
      vertex 6 33.6909 15.917
      vertex 2 33.4941 14.6749
    endloop
  endfacet
  facet normal 0 -0.98768 0.156489
    outer loop
      vertex 6 33.6909 15.917
      vertex 8 33.4941 14.6749
      vertex 8 33.6909 15.917
    endloop
  endfacet
  facet normal 0 -0.960298 0.278976
    outer loop
      vertex 2 34.3718 19.2761
      vertex 6 34.5821 20
      vertex 2 34.5821 20
    endloop
  endfacet
  facet normal 0 -0.960298 0.278976
    outer loop
      vertex 6 34.5821 20
      vertex 2 34.3718 19.2761
      vertex 6 34.3718 19.2761
    endloop
  endfacet
  facet normal 0 -0.995563 0.0941022
    outer loop
      vertex 2 33.2736 12.3421
      vertex 8 33.4941 14.6749
      vertex 2 33.4941 14.6749
    endloop
  endfacet
  facet normal 0 -0.995563 0.0941022
    outer loop
      vertex 8 33.4941 14.6749
      vertex 2 33.2736 12.3421
      vertex 8 33.2736 12.3421
    endloop
  endfacet
  facet normal 1 0 0
    outer loop
      vertex 8 33.6909 15.917
      vertex 8 36.1199 16.5583
      vertex 8 33.8607 16.9893
    endloop
  endfacet
  facet normal 1 -0 0
    outer loop
      vertex 8 33.8607 16.9893
      vertex 8 36.1199 16.5583
      vertex 8 34.3718 19.2761
    endloop
  endfacet
  facet normal 1 0 0
    outer loop
      vertex 8 36.5996 18.7041
      vertex 8 34.3718 19.2761
      vertex 8 36.1199 16.5583
    endloop
  endfacet
  facet normal 1 -0 0
    outer loop
      vertex 8 34.3718 19.2761
      vertex 8 36.5996 18.7041
      vertex 8 34.5821 20
    endloop
  endfacet
  facet normal 1 -0 0
    outer loop
      vertex 8 34.5821 20
      vertex 8 36.5996 18.7041
      vertex 8 36.9761 20
    endloop
  endfacet
  facet normal 1 0 0
    outer loop
      vertex 8 36.1199 16.5583
      vertex 8 33.6909 15.917
      vertex 8 35.776 14.3867
    endloop
  endfacet
  facet normal 1 0 0
    outer loop
      vertex 8 36.5996 1.29585
      vertex 8 34.5821 0
      vertex 8 36.9761 0
    endloop
  endfacet
  facet normal 1 0 0
    outer loop
      vertex 8 34.3718 0.723867
      vertex 8 36.5996 1.29585
      vertex 8 36.1199 3.44165
    endloop
  endfacet
  facet normal 1 -0 0
    outer loop
      vertex 8 33.6909 4.08296
      vertex 8 36.1199 3.44165
      vertex 8 35.776 5.61334
    endloop
  endfacet
  facet normal 1 0 0
    outer loop
      vertex 8 33.4941 5.32507
      vertex 8 35.776 5.61334
      vertex 8 35.5691 7.80233
    endloop
  endfacet
  facet normal 1 -0 0
    outer loop
      vertex 8 33.4941 14.6749
      vertex 8 35.776 14.3867
      vertex 8 33.6909 15.917
    endloop
  endfacet
  facet normal 1 0 0
    outer loop
      vertex 8 35.776 14.3867
      vertex 8 33.4941 14.6749
      vertex 8 35.5691 12.1977
    endloop
  endfacet
  facet normal 1 0 0
    outer loop
      vertex 8 35.5691 12.1977
      vertex 8 33.2736 12.3421
      vertex 8 35.5 10
    endloop
  endfacet
  facet normal 1 -0 0
    outer loop
      vertex 8 33.2736 12.3421
      vertex 8 35.5691 12.1977
      vertex 8 33.4941 14.6749
    endloop
  endfacet
  facet normal 1 0 0
    outer loop
      vertex 8 36.1199 3.44165
      vertex 8 33.6909 4.08296
      vertex 8 33.8607 3.01068
    endloop
  endfacet
  facet normal 1 0 0
    outer loop
      vertex 8 36.5996 1.29585
      vertex 8 34.3718 0.723867
      vertex 8 34.5821 0
    endloop
  endfacet
  facet normal 1 0 0
    outer loop
      vertex 8 36.1199 3.44165
      vertex 8 33.8607 3.01068
      vertex 8 34.3718 0.723867
    endloop
  endfacet
  facet normal 1 0 0
    outer loop
      vertex 8 33.2 10
      vertex 8 35.5 10
      vertex 8 33.2736 12.3421
    endloop
  endfacet
  facet normal 1 0 0
    outer loop
      vertex 8 35.5 10
      vertex 8 33.2 10
      vertex 8 35.5691 7.80233
    endloop
  endfacet
  facet normal 1 0 -0
    outer loop
      vertex 8 33.4941 5.32507
      vertex 8 35.5691 7.80233
      vertex 8 33.2736 7.65791
    endloop
  endfacet
  facet normal 1 0 0
    outer loop
      vertex 8 35.776 5.61334
      vertex 8 33.4941 5.32507
      vertex 8 33.6909 4.08296
    endloop
  endfacet
  facet normal 1 0 0
    outer loop
      vertex 8 35.5691 7.80233
      vertex 8 33.2 10
      vertex 8 33.2736 7.65791
    endloop
  endfacet
  facet normal 0 -0.98768 -0.156488
    outer loop
      vertex 2 33.4941 5.32507
      vertex 6 33.6909 4.08296
      vertex 8 33.4941 5.32507
    endloop
  endfacet
  facet normal 1.22081e-05 -0.987686 -0.15645
    outer loop
      vertex 2 33.8607 3.01068
      vertex 6 33.6909 4.08296
      vertex 2 33.4941 5.32507
    endloop
  endfacet
  facet normal 0 -0.987693 -0.156405
    outer loop
      vertex 6 33.6909 4.08296
      vertex 2 33.8607 3.01068
      vertex 6 33.8607 3.01068
    endloop
  endfacet
  facet normal 0 -0.98768 -0.156488
    outer loop
      vertex 8 33.4941 5.32507
      vertex 6 33.6909 4.08296
      vertex 8 33.6909 4.08296
    endloop
  endfacet
  facet normal 0 -0.975922 0.218119
    outer loop
      vertex 2 33.8607 16.9893
      vertex 6 34.3718 19.2761
      vertex 2 34.3718 19.2761
    endloop
  endfacet
  facet normal 0 -0.975922 0.218119
    outer loop
      vertex 6 34.3718 19.2761
      vertex 2 33.8607 16.9893
      vertex 6 33.8607 16.9893
    endloop
  endfacet
  facet normal 0 -0.999507 0.0314093
    outer loop
      vertex 6 33.2 10
      vertex 2 33.2736 12.3421
      vertex 2 33.2 10
    endloop
  endfacet
  facet normal 0 -0.999507 0.0314093
    outer loop
      vertex 2 33.2736 12.3421
      vertex 6 33.2 10
      vertex 8 33.2736 12.3421
    endloop
  endfacet
  facet normal 0 -0.999507 0.0314093
    outer loop
      vertex 8 33.2736 12.3421
      vertex 6 33.2 10
      vertex 8 33.2 10
    endloop
  endfacet
  facet normal 0 -0.995563 -0.0941006
    outer loop
      vertex 2 33.4941 5.32507
      vertex 8 33.2736 7.65791
      vertex 2 33.2736 7.65791
    endloop
  endfacet
  facet normal 0 -0.995563 -0.0941006
    outer loop
      vertex 8 33.2736 7.65791
      vertex 2 33.4941 5.32507
      vertex 8 33.4941 5.32507
    endloop
  endfacet
  facet normal 0 -0.960295 -0.278988
    outer loop
      vertex 2 34.5821 0
      vertex 6 34.3718 0.723867
      vertex 2 34.3718 0.723867
    endloop
  endfacet
  facet normal 0 -0.960295 -0.278988
    outer loop
      vertex 6 34.3718 0.723867
      vertex 2 34.5821 0
      vertex 6 34.5821 0
    endloop
  endfacet
  facet normal 1 -0 0
    outer loop
      vertex 8 34.3718 0.723865
      vertex 8 34.5821 0
      vertex 8 34.3718 0.723867
    endloop
  endfacet
  facet normal -1 -0 0
    outer loop
      vertex 0 35.5691 7.80233
      vertex 0 23 0
      vertex 0 35.5 10
    endloop
  endfacet
  facet normal -1 -0 0
    outer loop
      vertex 0 35.776 5.61334
      vertex 0 23 0
      vertex 0 35.5691 7.80233
    endloop
  endfacet
  facet normal -1 -0 0
    outer loop
      vertex 0 36.1199 3.44165
      vertex 0 23 0
      vertex 0 35.776 5.61334
    endloop
  endfacet
  facet normal -1 -0 0
    outer loop
      vertex 0 36.5996 1.29585
      vertex 0 23 0
      vertex 0 36.1199 3.44165
    endloop
  endfacet
  facet normal -1 0 0
    outer loop
      vertex 0 23 0
      vertex 0 36.5996 1.29585
      vertex 0 36.9761 0
    endloop
  endfacet
  facet normal -1 0 0
    outer loop
      vertex 0 23 20
      vertex 0 35.5 10
      vertex 0 23 0
    endloop
  endfacet
  facet normal -1 0 0
    outer loop
      vertex 0 35.5 10
      vertex 0 23 20
      vertex 0 35.5691 12.1977
    endloop
  endfacet
  facet normal -1 0 0
    outer loop
      vertex 0 35.5691 12.1977
      vertex 0 23 20
      vertex 0 35.776 14.3867
    endloop
  endfacet
  facet normal -1 0 0
    outer loop
      vertex 0 35.776 14.3867
      vertex 0 23 20
      vertex 0 36.1199 16.5583
    endloop
  endfacet
  facet normal -1 0 0
    outer loop
      vertex 0 36.1199 16.5583
      vertex 0 23 20
      vertex 0 36.5996 18.7041
    endloop
  endfacet
  facet normal -1 0 0
    outer loop
      vertex 0 36.5996 18.7041
      vertex 0 23 20
      vertex 0 36.9761 20
    endloop
  endfacet
  facet normal 0 0.999506 -0.0314264
    outer loop
      vertex 2 35.5 10
      vertex 8 35.5691 12.1977
      vertex 8 35.5 10
    endloop
  endfacet
  facet normal 0 0.999506 -0.0314264
    outer loop
      vertex 8 35.5691 12.1977
      vertex 2 35.5 10
      vertex 0 35.5691 12.1977
    endloop
  endfacet
  facet normal 0 0.999506 -0.0314264
    outer loop
      vertex 0 35.5691 12.1977
      vertex 2 35.5 10
      vertex 0 35.5 10
    endloop
  endfacet
  facet normal 0 0.987693 0.156407
    outer loop
      vertex 8 36.1199 3.44165
      vertex 0 35.776 5.61334
      vertex 8 35.776 5.61334
    endloop
  endfacet
  facet normal 0 0.987693 0.156407
    outer loop
      vertex 0 35.776 5.61334
      vertex 8 36.1199 3.44165
      vertex 0 36.1199 3.44165
    endloop
  endfacet
  facet normal 0 0.975911 -0.218168
    outer loop
      vertex 8 36.1199 16.5583
      vertex 0 36.5996 18.7041
      vertex 8 36.5996 18.7041
    endloop
  endfacet
  facet normal 0 0.975911 -0.218168
    outer loop
      vertex 0 36.5996 18.7041
      vertex 8 36.1199 16.5583
      vertex 0 36.1199 16.5583
    endloop
  endfacet
  facet normal 0 0.987692 -0.156413
    outer loop
      vertex 8 35.776 14.3867
      vertex 0 36.1199 16.5583
      vertex 8 36.1199 16.5583
    endloop
  endfacet
  facet normal 0 0.987692 -0.156413
    outer loop
      vertex 0 36.1199 16.5583
      vertex 8 35.776 14.3867
      vertex 0 35.776 14.3867
    endloop
  endfacet
  facet normal 0 0.995563 0.0940991
    outer loop
      vertex 8 35.776 5.61334
      vertex 0 35.5691 7.80233
      vertex 8 35.5691 7.80233
    endloop
  endfacet
  facet normal 0 0.995563 0.0940991
    outer loop
      vertex 0 35.5691 7.80233
      vertex 8 35.776 5.61334
      vertex 0 35.776 5.61334
    endloop
  endfacet
  facet normal 0 0.960292 -0.278995
    outer loop
      vertex 8 36.5996 18.7041
      vertex 0 36.9761 20
      vertex 8 36.9761 20
    endloop
  endfacet
  facet normal 0 0.960292 -0.278995
    outer loop
      vertex 0 36.9761 20
      vertex 8 36.5996 18.7041
      vertex 0 36.5996 18.7041
    endloop
  endfacet
  facet normal 0 0.995563 -0.0940987
    outer loop
      vertex 8 35.5691 12.1977
      vertex 0 35.776 14.3867
      vertex 8 35.776 14.3867
    endloop
  endfacet
  facet normal 0 0.995563 -0.0940987
    outer loop
      vertex 0 35.776 14.3867
      vertex 8 35.5691 12.1977
      vertex 0 35.5691 12.1977
    endloop
  endfacet
  facet normal 0 0.975911 0.218168
    outer loop
      vertex 8 36.5996 1.29585
      vertex 0 36.1199 3.44165
      vertex 8 36.1199 3.44165
    endloop
  endfacet
  facet normal 0 0.975911 0.218168
    outer loop
      vertex 0 36.1199 3.44165
      vertex 8 36.5996 1.29585
      vertex 0 36.5996 1.29585
    endloop
  endfacet
  facet normal 0 0.96029 0.279005
    outer loop
      vertex 8 36.9761 0
      vertex 0 36.5996 1.29585
      vertex 8 36.5996 1.29585
    endloop
  endfacet
  facet normal 0 0.96029 0.279005
    outer loop
      vertex 0 36.5996 1.29585
      vertex 8 36.9761 0
      vertex 0 36.9761 0
    endloop
  endfacet
  facet normal 0 0.999506 0.0314269
    outer loop
      vertex 8 35.5691 7.80233
      vertex 2 35.5 10
      vertex 8 35.5 10
    endloop
  endfacet
  facet normal -0 0.999506 0.0314269
    outer loop
      vertex 0 35.5691 7.80233
      vertex 2 35.5 10
      vertex 8 35.5691 7.80233
    endloop
  endfacet
  facet normal 0 0.999506 0.0314269
    outer loop
      vertex 2 35.5 10
      vertex 0 35.5691 7.80233
      vertex 0 35.5 10
    endloop
  endfacet
  facet normal 0.410074 -0.875839 -0.254452
    outer loop
      vertex 7.42739 34.314 0
      vertex 8 34.5821 0
      vertex 8 34.3718 0.723865
    endloop
  endfacet
  facet normal 0.410186 -0.875759 -0.254546
    outer loop
      vertex 7.42739 34.314 0
      vertex 8 34.3718 0.723867
      vertex 6 33.5001 0.500048
    endloop
  endfacet
  facet normal 0.410215 -0.875766 -0.254473
    outer loop
      vertex 7.42739 34.314 0
      vertex 6 33.5001 0.500048
      vertex 6 33.6454 0
    endloop
  endfacet
  facet normal 0.100431 -0.994944 0
    outer loop
      vertex 8 34.3718 0.723867
      vertex 7.42739 34.314 0
      vertex 8 34.3718 0.723865
    endloop
  endfacet
  facet normal 0.410187 -0.890043 -0.198924
    outer loop
      vertex 6 33.5001 0.500048
      vertex 8 34.3718 0.723867
      vertex 8 33.8607 3.01067
    endloop
  endfacet
  facet normal 0.404309 -0.914623 0
    outer loop
      vertex 6 32.9766 2.84204
      vertex 8 33.8607 3.01067
      vertex 8 33.8607 3.01068
    endloop
  endfacet
  facet normal 0.410211 -0.890027 -0.198946
    outer loop
      vertex 8 33.8607 3.01067
      vertex 6 32.9766 2.84204
      vertex 6 33.5001 0.500048
    endloop
  endfacet
  facet normal 0 0.98768 0.156488
    outer loop
      vertex 8 33.6909 4.08296
      vertex 6 33.4941 5.32507
      vertex 8 33.4941 5.32507
    endloop
  endfacet
  facet normal 0 0.98768 0.156488
    outer loop
      vertex 6 33.4941 5.32507
      vertex 8 33.6909 4.08296
      vertex 6 33.6909 4.08296
    endloop
  endfacet
  facet normal 0.410247 -0.900739 -0.142713
    outer loop
      vertex 6 32.9766 2.84204
      vertex 8 33.6909 4.08296
      vertex 8 33.4941 5.32507
    endloop
  endfacet
  facet normal 0.410211 -0.900767 -0.14264
    outer loop
      vertex 8 33.6909 4.08296
      vertex 6 32.9766 2.84204
      vertex 8 33.8607 3.01068
    endloop
  endfacet
  facet normal 0.410195 -0.90077 -0.142665
    outer loop
      vertex 6 32.6012 5.21227
      vertex 6 32.9766 2.84204
      vertex 8 33.4941 5.32507
    endloop
  endfacet
  facet normal 0 0.995563 0.0941006
    outer loop
      vertex 8 33.4941 5.32507
      vertex 6 33.2736 7.65791
      vertex 8 33.2736 7.65791
    endloop
  endfacet
  facet normal 0 0.995563 0.0941006
    outer loop
      vertex 6 33.2736 7.65791
      vertex 8 33.4941 5.32507
      vertex 6 33.4941 5.32507
    endloop
  endfacet
  facet normal 0.410195 -0.907951 -0.0858195
    outer loop
      vertex 6 32.6012 5.21227
      vertex 8 33.4941 5.32507
      vertex 8 33.2736 7.65791
    endloop
  endfacet
  facet normal 0.410192 -0.907952 -0.0858257
    outer loop
      vertex 6 32.5 6.28311
      vertex 8 33.2736 7.65791
      vertex 6.27747 32.5 7.60924
    endloop
  endfacet
  facet normal 0.410182 -0.907958 -0.0858068
    outer loop
      vertex 8 33.2736 7.65791
      vertex 6 32.5 6.28311
      vertex 6 32.6012 5.21227
    endloop
  endfacet
  facet normal 0 0.999507 0.0314094
    outer loop
      vertex 8 33.2736 7.65791
      vertex 6 33.2 10
      vertex 8 33.2 10
    endloop
  endfacet
  facet normal 0 0.999507 0.0314094
    outer loop
      vertex 6 33.2 10
      vertex 8 33.2736 7.65791
      vertex 6 33.2736 7.65791
    endloop
  endfacet
  facet normal 0.410193 -0.911549 -0.0286453
    outer loop
      vertex 6.30224 32.5 7.96388
      vertex 8 33.2736 7.65791
      vertex 8 33.2 10
    endloop
  endfacet
  facet normal 0.410192 -0.911549 -0.0286501
    outer loop
      vertex 8 33.2736 7.65791
      vertex 6.30224 32.5 7.96388
      vertex 6.27747 32.5 7.60924
    endloop
  endfacet
  facet normal 0.410193 -0.911549 -0.0286453
    outer loop
      vertex 6.30224 32.5 7.96388
      vertex 8 33.2 10
      vertex 6.44443 32.5 10
    endloop
  endfacet
  facet normal 0 0.999507 -0.0314093
    outer loop
      vertex 8 33.2 10
      vertex 6 33.2736 12.3421
      vertex 8 33.2736 12.3421
    endloop
  endfacet
  facet normal 0 0.999507 -0.0314093
    outer loop
      vertex 6 33.2736 12.3421
      vertex 8 33.2 10
      vertex 6 33.2 10
    endloop
  endfacet
  facet normal 0.410193 -0.911549 0.0286479
    outer loop
      vertex 8 33.2 10
      vertex 6.41083 32.5 10.4811
      vertex 6.44443 32.5 10
    endloop
  endfacet
  facet normal 0.410192 -0.911549 0.0286452
    outer loop
      vertex 6.41083 32.5 10.4811
      vertex 8 33.2 10
      vertex 8 33.2736 12.3421
    endloop
  endfacet
  facet normal 0.410193 -0.911549 0.028645
    outer loop
      vertex 6.41083 32.5 10.4811
      vertex 8 33.2736 12.3421
      vertex 6.27747 32.5 12.3908
    endloop
  endfacet
  facet normal 0 0.995563 -0.0941022
    outer loop
      vertex 8 33.2736 12.3421
      vertex 6 33.4941 14.6749
      vertex 8 33.4941 14.6749
    endloop
  endfacet
  facet normal 0 0.995563 -0.0941022
    outer loop
      vertex 6 33.4941 14.6749
      vertex 8 33.2736 12.3421
      vertex 6 33.2736 12.3421
    endloop
  endfacet
  facet normal 0.410194 -0.907952 0.0858205
    outer loop
      vertex 8 33.2736 12.3421
      vertex 6.22278 32.5 12.6522
      vertex 6.27747 32.5 12.3908
    endloop
  endfacet
  facet normal 0.410194 -0.907951 0.085821
    outer loop
      vertex 6.22278 32.5 12.6522
      vertex 8 33.2736 12.3421
      vertex 8 33.4941 14.6749
    endloop
  endfacet
  facet normal 0.410195 -0.907952 0.0858094
    outer loop
      vertex 6 32.5 13.7169
      vertex 8 33.4941 14.6749
      vertex 6 32.6012 14.7877
    endloop
  endfacet
  facet normal 0.410187 -0.907954 0.0858283
    outer loop
      vertex 8 33.4941 14.6749
      vertex 6 32.5 13.7169
      vertex 6.22278 32.5 12.6522
    endloop
  endfacet
  facet normal 0 0.98768 -0.156489
    outer loop
      vertex 8 33.4941 14.6749
      vertex 6 33.6909 15.917
      vertex 8 33.6909 15.917
    endloop
  endfacet
  facet normal 0 0.98768 -0.156489
    outer loop
      vertex 6 33.6909 15.917
      vertex 8 33.4941 14.6749
      vertex 6 33.4941 14.6749
    endloop
  endfacet
  facet normal 0.410237 -0.900755 0.142636
    outer loop
      vertex 6 32.6012 14.7877
      vertex 8 33.6909 15.917
      vertex 8 33.8607 16.9893
    endloop
  endfacet
  facet normal 0.410194 -0.900762 0.142718
    outer loop
      vertex 8 33.6909 15.917
      vertex 6 32.6012 14.7877
      vertex 8 33.4941 14.6749
    endloop
  endfacet
  facet normal 0.410215 -0.900762 0.14266
    outer loop
      vertex 8 33.8607 16.9893
      vertex 6 32.9766 17.158
      vertex 6 32.6012 14.7877
    endloop
  endfacet
  facet normal 0.410217 -0.89003 0.198922
    outer loop
      vertex 6 32.9766 17.158
      vertex 8 33.8607 16.9893
      vertex 8 34.3718 19.2761
    endloop
  endfacet
  facet normal 0.410194 -0.890035 0.198947
    outer loop
      vertex 8 34.3718 19.2761
      vertex 6 33.5001 19.5
      vertex 6 32.9766 17.158
    endloop
  endfacet
  facet normal 0.410194 -0.875754 0.254549
    outer loop
      vertex 8 34.3718 19.2761
      vertex 6.49354 33.8766 20
      vertex 6 33.5001 19.5
    endloop
  endfacet
  facet normal 0.410155 -0.875807 0.25443
    outer loop
      vertex 6.49354 33.8766 20
      vertex 8 34.3718 19.2761
      vertex 8 34.5821 20
    endloop
  endfacet
  facet normal 0.410246 -0.875747 0.254492
    outer loop
      vertex 6 33.5001 19.5
      vertex 6.49354 33.8766 20
      vertex 6 33.6454 20
    endloop
  endfacet
  facet normal -1 0 0
    outer loop
      vertex 6 33.6454 0
      vertex 6 34.3718 0.723867
      vertex 6 34.5821 0
    endloop
  endfacet
  facet normal -1 0 0
    outer loop
      vertex 6 33.5001 0.500048
      vertex 6 34.3718 0.723867
      vertex 6 33.6454 0
    endloop
  endfacet
  facet normal -1 -0 0
    outer loop
      vertex 6 34.3718 0.723867
      vertex 6 33.5001 0.500048
      vertex 6 33.8607 3.01068
    endloop
  endfacet
  facet normal -1 0 0
    outer loop
      vertex 6 32.9766 2.84204
      vertex 6 33.8607 3.01068
      vertex 6 33.5001 0.500048
    endloop
  endfacet
  facet normal -1 -0 0
    outer loop
      vertex 6 33.8607 3.01068
      vertex 6 32.9766 2.84204
      vertex 6 33.6909 4.08296
    endloop
  endfacet
  facet normal -1 0 0
    outer loop
      vertex 6 32.6012 5.21227
      vertex 6 33.6909 4.08296
      vertex 6 32.9766 2.84204
    endloop
  endfacet
  facet normal -1 0 0
    outer loop
      vertex 6 32.5 6.28311
      vertex 6 33.4941 5.32507
      vertex 6 32.6012 5.21227
    endloop
  endfacet
  facet normal -1 0 0
    outer loop
      vertex 6 33.6909 4.08296
      vertex 6 32.6012 5.21227
      vertex 6 33.4941 5.32507
    endloop
  endfacet
  facet normal -1 0 0
    outer loop
      vertex 6 34.3718 19.2761
      vertex 6 33.6454 20
      vertex 6 34.5821 20
    endloop
  endfacet
  facet normal -1 0 0
    outer loop
      vertex 6 33.5001 19.5
      vertex 6 34.3718 19.2761
      vertex 6 33.8607 16.9893
    endloop
  endfacet
  facet normal -1 0 0
    outer loop
      vertex 6 32.9766 17.158
      vertex 6 33.8607 16.9893
      vertex 6 33.6909 15.917
    endloop
  endfacet
  facet normal -1 0 0
    outer loop
      vertex 6 34.3718 19.2761
      vertex 6 33.5001 19.5
      vertex 6 33.6454 20
    endloop
  endfacet
  facet normal -1 0 0
    outer loop
      vertex 6 32.6012 14.7877
      vertex 6 33.6909 15.917
      vertex 6 33.4941 14.6749
    endloop
  endfacet
  facet normal -1 0 0
    outer loop
      vertex 6 32.5 13.7169
      vertex 6 33.4941 14.6749
      vertex 6 33.2736 12.3421
    endloop
  endfacet
  facet normal -1 0 0
    outer loop
      vertex 6 33.8607 16.9893
      vertex 6 32.9766 17.158
      vertex 6 33.5001 19.5
    endloop
  endfacet
  facet normal -1 0 0
    outer loop
      vertex 6 32.5 13.7169
      vertex 6 33.2736 12.3421
      vertex 6 33.2 10
    endloop
  endfacet
  facet normal -1 0 0
    outer loop
      vertex 6 33.4941 5.32507
      vertex 6 32.5 6.28311
      vertex 6 33.2736 7.65791
    endloop
  endfacet
  facet normal -1 -0 0
    outer loop
      vertex 6 33.2736 7.65791
      vertex 6 32.5 6.28311
      vertex 6 33.2 10
    endloop
  endfacet
  facet normal -1 0 0
    outer loop
      vertex 6 32.5 13.7169
      vertex 6 33.2 10
      vertex 6 32.5 6.28311
    endloop
  endfacet
  facet normal -1 -0 0
    outer loop
      vertex 6 33.4941 14.6749
      vertex 6 32.5 13.7169
      vertex 6 32.6012 14.7877
    endloop
  endfacet
  facet normal -1 -0 0
    outer loop
      vertex 6 33.6909 15.917
      vertex 6 32.6012 14.7877
      vertex 6 32.9766 17.158
    endloop
  endfacet
  facet normal 0 -1 0
    outer loop
      vertex 6.22278 32.5 12.6522
      vertex 6.41083 32.5 10.4811
      vertex 6.27747 32.5 12.3908
    endloop
  endfacet
  facet normal 0 -1 0
    outer loop
      vertex 6 32.5 13.7169
      vertex 6.41083 32.5 10.4811
      vertex 6.22278 32.5 12.6522
    endloop
  endfacet
  facet normal 0 -1 0
    outer loop
      vertex 6.30224 32.5 7.96388
      vertex 6.41083 32.5 10.4811
      vertex 6 32.5 13.7169
    endloop
  endfacet
  facet normal 0 -1 -0
    outer loop
      vertex 6.41083 32.5 10.4811
      vertex 6.30224 32.5 7.96388
      vertex 6.44443 32.5 10
    endloop
  endfacet
  facet normal 0 -1 0
    outer loop
      vertex 6 32.5 6.28311
      vertex 6.30224 32.5 7.96388
      vertex 6 32.5 13.7169
    endloop
  endfacet
  facet normal 0 -1 0
    outer loop
      vertex 6.30224 32.5 7.96388
      vertex 6 32.5 6.28311
      vertex 6.27747 32.5 7.60924
    endloop
  endfacet
  facet normal 1 0 0
    outer loop
      vertex 2 33.2736 12.3421
      vertex 2 23 20
      vertex 2 33.2 10
    endloop
  endfacet
  facet normal 1 0 0
    outer loop
      vertex 2 33.4941 14.6749
      vertex 2 23 20
      vertex 2 33.2736 12.3421
    endloop
  endfacet
  facet normal 1 0 0
    outer loop
      vertex 2 33.8607 16.9893
      vertex 2 23 20
      vertex 2 33.4941 14.6749
    endloop
  endfacet
  facet normal 1 0 0
    outer loop
      vertex 2 34.3718 19.2761
      vertex 2 23 20
      vertex 2 33.8607 16.9893
    endloop
  endfacet
  facet normal 1 -0 0
    outer loop
      vertex 2 23 20
      vertex 2 34.3718 19.2761
      vertex 2 34.5821 20
    endloop
  endfacet
  facet normal 1 0 0
    outer loop
      vertex 2 23 0
      vertex 2 33.2 10
      vertex 2 23 20
    endloop
  endfacet
  facet normal 1 0 0
    outer loop
      vertex 2 33.2 10
      vertex 2 23 0
      vertex 2 33.2736 7.65791
    endloop
  endfacet
  facet normal 1 0 0
    outer loop
      vertex 2 33.2736 7.65791
      vertex 2 23 0
      vertex 2 33.4941 5.32507
    endloop
  endfacet
  facet normal 1 0 0
    outer loop
      vertex 2 33.4941 5.32507
      vertex 2 23 0
      vertex 2 33.8607 3.01068
    endloop
  endfacet
  facet normal 1 0 0
    outer loop
      vertex 2 33.8607 3.01068
      vertex 2 23 0
      vertex 2 34.3718 0.723867
    endloop
  endfacet
  facet normal 1 0 0
    outer loop
      vertex 2 34.3718 0.723867
      vertex 2 23 0
      vertex 2 34.5821 0
    endloop
  endfacet
endsolid OpenSCAD_Model
